{
  "prepare_queue": {
    "installed": [],
    "uninstalled": []
  },
  "config_munge": {
    "files": {
      "config.xml": {
        "parents": {
          "/*": [
            {
              "xml": "<feature name=\"CallNumber\"><param name=\"ios-package\" value=\"CFCallNumber\" /></feature>",
              "count": 1
            },
            {
              "xml": "<feature name=\"Device\"><param name=\"ios-package\" value=\"CDVDevice\" /></feature>",
              "count": 1
            },
            {
              "xml": "<feature name=\"ImagePicker\"><param name=\"ios-package\" value=\"SOSPicker\" /></feature>",
              "count": 1
            },
            {
              "xml": "<feature name=\"NativeStorage\"><param name=\"ios-package\" value=\"NativeStorage\" /></feature>",
              "count": 1
            },
            {
              "xml": "<feature name=\"Sim\"><param name=\"ios-package\" value=\"Sim\" /></feature>",
              "count": 1
            },
            {
              "xml": "<feature name=\"SplashScreen\"><param name=\"ios-package\" value=\"CDVSplashScreen\" /><param name=\"onload\" value=\"true\" /></feature>",
              "count": 1
            },
            {
              "xml": "<feature name=\"StatusBar\"><param name=\"ios-package\" value=\"CDVStatusBar\" /><param name=\"onload\" value=\"true\" /></feature>",
              "count": 1
            },
            {
              "xml": "<preference name=\"StatusBarOverlaysWebView\" value=\"true\" />",
              "count": 1
            },
            {
              "xml": "<preference name=\"StatusBarStyle\" value=\"lightcontent\" />",
              "count": 1
            }
          ]
        }
      },
      "*-Info.plist": {
        "parents": {
          "NSAllowsArbitraryLoads": [
            {
              "xml": "<true />",
              "count": 3
            }
          ],
          "NSAppTransportSecurity": [
            {
              "xml": "<dict><key>NSAllowsArbitraryLoadsInWebContent</key><true /></dict>",
              "count": 1
            }
          ]
        }
      }
    }
  },
  "installed_plugins": {
    "cordova-plugin-call-number": {
      "PACKAGE_NAME": "xdk.intel.template"
    },
    "cordova-plugin-crosswalk-webview": {
      "PACKAGE_NAME": "xdk.intel.template"
    },
    "cordova-plugin-device": {
      "PACKAGE_NAME": "xdk.intel.template"
    },
    "cordova-plugin-headercolor": {
      "PACKAGE_NAME": "xdk.intel.template"
    },
    "cordova-plugin-image-picker": {
      "PACKAGE_NAME": "xdk.intel.template"
    },
    "cordova-plugin-nativestorage": {
      "PACKAGE_NAME": "xdk.intel.template"
    },
    "cordova-plugin-sim": {
      "PACKAGE_NAME": "xdk.intel.template"
    },
    "cordova-plugin-splashscreen": {
      "PACKAGE_NAME": "xdk.intel.template"
    },
    "cordova-plugin-statusbar": {
      "PACKAGE_NAME": "xdk.intel.template"
    },
    "cordova-plugin-whitelist": {
      "PACKAGE_NAME": "xdk.intel.template"
    }
  },
  "dependent_plugins": {},
  "modules": [
    {
      "id": "cordova-plugin-call-number.CallNumber",
      "file": "plugins/cordova-plugin-call-number/www/CallNumber.js",
      "pluginId": "cordova-plugin-call-number",
      "clobbers": [
        "call"
      ]
    },
    {
      "id": "cordova-plugin-device.device",
      "file": "plugins/cordova-plugin-device/www/device.js",
      "pluginId": "cordova-plugin-device",
      "clobbers": [
        "device"
      ]
    },
    {
      "id": "cordova-plugin-headercolor.HeaderColor",
      "file": "plugins/cordova-plugin-headercolor/www/HeaderColor.js",
      "pluginId": "cordova-plugin-headercolor",
      "clobbers": [
        "cordova.plugins.headerColor"
      ]
    },
    {
      "id": "cordova-plugin-image-picker.ImagePicker",
      "file": "plugins/cordova-plugin-image-picker/www/imagepicker.js",
      "pluginId": "cordova-plugin-image-picker",
      "clobbers": [
        "plugins.imagePicker"
      ]
    },
    {
      "id": "cordova-plugin-nativestorage.mainHandle",
      "file": "plugins/cordova-plugin-nativestorage/www/mainHandle.js",
      "pluginId": "cordova-plugin-nativestorage",
      "clobbers": [
        "NativeStorage"
      ]
    },
    {
      "id": "cordova-plugin-nativestorage.LocalStorageHandle",
      "file": "plugins/cordova-plugin-nativestorage/www/LocalStorageHandle.js",
      "pluginId": "cordova-plugin-nativestorage"
    },
    {
      "id": "cordova-plugin-nativestorage.NativeStorageError",
      "file": "plugins/cordova-plugin-nativestorage/www/NativeStorageError.js",
      "pluginId": "cordova-plugin-nativestorage"
    },
    {
      "id": "cordova-plugin-sim.Sim",
      "file": "plugins/cordova-plugin-sim/www/sim.js",
      "pluginId": "cordova-plugin-sim",
      "merges": [
        "window.plugins.sim"
      ]
    },
    {
      "id": "cordova-plugin-splashscreen.SplashScreen",
      "file": "plugins/cordova-plugin-splashscreen/www/splashscreen.js",
      "pluginId": "cordova-plugin-splashscreen",
      "clobbers": [
        "navigator.splashscreen"
      ]
    },
    {
      "id": "cordova-plugin-statusbar.statusbar",
      "file": "plugins/cordova-plugin-statusbar/www/statusbar.js",
      "pluginId": "cordova-plugin-statusbar",
      "clobbers": [
        "window.StatusBar"
      ]
    }
  ],
  "plugin_metadata": {
    "cordova-plugin-call-number": "1.0.1",
    "cordova-plugin-crosswalk-webview": "2.3.0",
    "cordova-plugin-device": "1.1.2",
    "cordova-plugin-headercolor": "1.0",
    "cordova-plugin-image-picker": "1.1.1",
    "cordova-plugin-nativestorage": "2.2.2",
    "cordova-plugin-sim": "1.3.3",
    "cordova-plugin-splashscreen": "4.0.3",
    "cordova-plugin-statusbar": "2.2.3",
    "cordova-plugin-whitelist": "1.2.2"
  }
}