{
  "cordova-plugin-statusbar": {
    "source": {
      "type": "registry",
      "id": "cordova-plugin-statusbar@2.2.3"
    },
    "is_top_level": true,
    "variables": {}
  },
  "cordova-plugin-device": {
    "source": {
      "type": "registry",
      "id": "cordova-plugin-device@1.1.2"
    },
    "is_top_level": true,
    "variables": {}
  },
  "cordova-plugin-splashscreen": {
    "source": {
      "type": "registry",
      "id": "cordova-plugin-splashscreen@4.0.3"
    },
    "is_top_level": true,
    "variables": {}
  },
  "cordova-plugin-nativestorage": {
    "source": {
      "type": "registry",
      "id": "cordova-plugin-nativestorage@2.2.2"
    },
    "is_top_level": true,
    "variables": {}
  },
  "cordova-plugin-headercolor": {
    "source": {
      "type": "registry",
      "id": "cordova-plugin-headercolor@1.0"
    },
    "is_top_level": true,
    "variables": {}
  },
  "cordova-plugin-call-number": {
    "source": {
      "type": "registry",
      "id": "cordova-plugin-call-number@1.0.1"
    },
    "is_top_level": true,
    "variables": {}
  },
  "cordova-plugin-sim": {
    "source": {
      "type": "registry",
      "id": "cordova-plugin-sim@1.3.3"
    },
    "is_top_level": true,
    "variables": {}
  },
  "cordova-plugin-image-picker": {
    "source": {
      "type": "registry",
      "id": "cordova-plugin-image-picker@1.1.1"
    },
    "is_top_level": true,
    "variables": {
      "PHOTO_LIBRARY_USAGE_DESCRIPTION": "We need acces to your library to let you choose an image for your profile"
    }
  },
  "cordova-plugin-whitelist": {
    "source": {
      "type": "registry",
      "id": "cordova-plugin-whitelist@1.2.2"
    },
    "is_top_level": true,
    "variables": {}
  },
  "cordova-plugin-crosswalk-webview": {
    "source": {
      "type": "registry",
      "id": "cordova-plugin-crosswalk-webview@^2.3.0"
    },
    "is_top_level": true,
    "variables": {}
  }
}